<?xml version='1.0' encoding='UTF-8'?>
<!-- Created with Inkscape (http://www.inkscape.org/) and export_objects.py -->
<svg xmlns:cc="http://creativecommons.org/ns#" xmlns:dc="http://purl.org/dc/elements/1.1/" xmlns:inkscape="http://www.inkscape.org/namespaces/inkscape" xmlns:rdf="http://www.w3.org/1999/02/22-rdf-syntax-ns#" xmlns:sodipodi="http://sodipodi.sourceforge.net/DTD/sodipodi-0.dtd" xmlns:xlink="http://www.w3.org/1999/xlink" xmlns="http://www.w3.org/2000/svg" version="1.1" id="svg1" width="16" height="16" viewBox="0 0 16 16" sodipodi:docname="distribute-randomize-symbolic.svg">
<style id="style0001">
.success{fill:#33d17a}
.warning{fill:#f57900}
.danger{fill:#cc0000}
</style><sodipodi:namedview objecttolerance="10" gridtolerance="10" guidetolerance="10" id="namedview" showgrid="true" inkscape:zoom="0.6002936" inkscape:cx="732.67439" inkscape:cy="-567.94603" inkscape:window-width="1920" inkscape:window-height="1016" inkscape:window-x="0" inkscape:window-y="27" inkscape:window-maximized="1" inkscape:current-layer="layer1">
    <inkscape:grid type="xygrid" id="grid"/>
  </sodipodi:namedview>
  <g transform="matrix(0.666667,0,0,0.666667,-696,-548.90812)" inkscape:label="00289" id="distribute-randomize">
      <path inkscape:connector-curvature="0" id="rect19031" d="m 1044,823.36218 h 24 v 24 h -24 z" style="opacity:0;fill:none"/>
      <path inkscape:connector-curvature="0" id="rect19033" d="m 1046,313 h 6 v 4 h -6 z" style="opacity:1" transform="translate(0,512.3622)"/>
      <path inkscape:connector-curvature="0" id="rect19035" d="m 1051,832.36218 h 6 v 4 h -6 z" style="opacity:1"/>
      <path inkscape:connector-curvature="0" id="rect19037" d="m 1056,826.36218 h 6 v 4 h -6 z" style="opacity:1"/>
      <path inkscape:connector-curvature="0" id="rect19039" d="m 1060,834.36218 h 6 v 4 h -6 z" style="opacity:1"/>
      <path inkscape:connector-curvature="0" id="rect19041" d="m 1046,838.36218 h 6 v 4 h -6 z" style="opacity:1"/>
      <path inkscape:connector-curvature="0" id="rect19043" d="m 1054,841.36218 h 6 v 4 h -6 z" style="opacity:1"/>
    </g>
    </svg>
